{"index":{"_index":"dni", "_type":"_doc", "_id":1}}
{ "title": "Number of pupils attending Education Establishments in NI by School type 1991 - 201N", "description": "Data are collected annually through the School census exercise. This takes place in early October when each school is required to submit a return detailing information about", "topic":"Education", "dataset_link": "https://www.opendatani.gov.uk/dataset/68dae61e-6510-412e-a697-0b9e088efbe7/resource/ee2c9a3c-395c-402d-bc8f-6b7591038108/download/number-of-pupils-attending-education-establishments-in-ni-by-school-type--1991---2017.csv", "source": "opendatani", "organization": "Department Of Education", "created_at": "1548771169", "updated_at": "1548771169" }
{"index":{"_index":"dni", "_type":"_doc", "_id":2}}
{ "title": "Examination performance at post-primary schools in Northern Ireland", "description": "These data are gathered as part of the Summary of Annual Examination Results exercise. This exercise takes place between May and December of each year and collects information…", "topic":"Education", "dataset_link": "https://www.opendatani.gov.uk/dataset/108e3144-f251-4316-9cd0-8a92e8c7c1b6/resource/d1b3ccbb-2efa-4656-a7b3-45774cec1862/download/annual-school-examination-results-saer-2016-17-od.ods", "source": "opendatani", "organization": "Department Of Education", "created_at": "1548771169", "updated_at": "1548771169" }
{"index":{"_index":"dni", "_type":"_doc", "_id":3}}
{ "title": "Northern Ireland Multiple Deprivation Measure 2010", "description": "The 2010 Northern Ireland Multiple Deprivation Measure (NIMDM 2010) comprises seven domains of deprivation, each developed to measure a distinct form or type of deprivation.", "topic":"Employment", "dataset_link": "https://www.opendatani.gov.uk/dataset/6b9e49fb-7f3c-4503-ba68-31acbf32b1c3/resource/18c9edc5-1f82-4cb5-99cb-bbd96e941de7/download/northern-ireland-multiple-deprivation-measure-2010-statistical-geographies-super-output-areas.csv", "source": "opendatani", "organization": "Department Of Economy", "created_at": "1548771169", "updated_at": "1548771169" }
{"index":{"_index":"dni", "_type":"_doc", "_id":4}}
{ "title": "School Locations", "description": "The data gives the name, address, postcode, co-ordinates and enrolment data for schools in Northern Ireland. Further information regarding schools can be found on DE's website", "topic":"Education", "dataset_link": "https://www.opendatani.gov.uk/dataset/39cd6af4-8fed-4ac9-9620-577a2190bb34/resource/d0947faf-5d84-4ce4-80dd-ce4fa0e1c0d5/download/locate-a-school-open-data-feb-2016.csv", "source": "opendatani", "organization": "Department Of Education", "created_at": "1548771169", "updated_at": "1548771169" }
{"index":{"_index":"dni", "_type":"_doc", "_id":5}}
{ "title": "OpenDataNI dataset numbers by Publisher", "description": "A record of the numbers of datasets and their underlying unique records published on OpenDataNI, by Publisher.", "topic":"Finance", "dataset_link": "https://www.opendatani.gov.uk/dataset/b92a82d1-bdae-43b4-8551-6686b55fddca/resource/08429f2e-314f-45ae-b8c3-93882bdb477e/download/odni-dataset-and-resource-numbers-as-at-31mar2019.csv", "source": "opendatani", "organization": "Department Of Finance", "created_at": "1548771169", "updated_at": "1548771169" }
{"index":{"_index":"dni", "_type":"_doc", "_id":6}}
{ "title": "Penalty Charge Notice Data", "description": "This data presents the number of Penalty Charge Notices (PCNs), more commonly known as parking tickets, issued for vehicles found to be in contravention of parking restrictions or bus lane restrictions.", "topic":"Transport", "dataset_link": "https://www.opendatani.gov.uk/dataset/e9cc2e10-8f63-4237-9707-8546218f3b9f/resource/034d8614-1f9a-4078-bb38-5960feb573da/download/moving-traffic-offences-to-q4-2018.csv", "source": "opendatani", "organization": "Department Of Infrastructure", "created_at": "1548771169", "updated_at": "1548771169" }
{"index":{"_index":"dni", "_type":"_doc", "_id":7}}
{ "title": "Licensed Bus Vehicles (by postal district)", "description": "Number of licensed bus vehicles by postal district in Northern Ireland.", "topic":"Transport", "dataset_link": "https://cc-p-ni.ckan.io/dataset/ffb54ad2-1450-40f4-b8b0-e6042bcb8cfe/resource/ad40d84d-f5cc-47d4-a6ca-2eb1710810ec/download/number-of-licensed-bus-vehicles-by-postal-district-at-31-december-2018.csv", "source": "opendatani", "organization": "Department Of Infrastructure", "created_at": "1548771169", "updated_at": "1548771169" }
{"index":{"_index":"dni", "_type":"_doc", "_id":8}}
{ "title": "GP Prescribing Data", "description": "The data covers prescriptions that are prescribed in Northern Ireland by GPs or Nurses (within a GP Practice), that are subsequently dispensed by a community pharmacist, dispensing doctor or appliance supplier and are finally submitted to the Business Services Organisation (BSO) for payment and have been paid.", "topic":"Health", "dataset_link": "https://www.opendatani.gov.uk/dataset/a7b76920-bc0a-48fd-9abf-dc5ad0999886/resource/a788ffe8-3797-4fef-8e04-7dd3e1159cc1/download/gp-prescribing---february-2019.csv.xlsx", "source": "opendatani", "organization": "Department Of Health", "created_at": "1548771169", "updated_at": "1548771169" }
{"index":{"_index":"dni", "_type":"_doc", "_id":9}}
{ "title": "Northern Ireland Civil Service Employment Statistics", "description": "Figures at the Northern Ireland level, N I Civil Service staff numbers by department disaggregated by headcount, full-time equivalents, permanent, temporary/casual, gender and by analogous grade level for permanent staff. These are collated from the relevant electronic Human Resource (HR) systems on a quarterly basis and an accompanying statistical report is published on the NISRA website.", "topic":"Finance", "dataset_link": "https://www.opendatani.gov.uk/dataset/096bd1d8-382f-499a-b4bd-514875b81084/resource/df8c2979-dd38-491b-90e2-daf50743e25c/download/employment-in-nics-april-2017-tables-1a-3b-csv.csv", "source": "opendatani", "organization": "Department Of Finance", "created_at": "1548771169", "updated_at": "1548771169" }
{"index":{"_index":"dni", "_type":"_doc", "_id":10}}
{ "title": "NI House Price Index", "description": "A quarterly index providing a measure of change in the price of a standardised residential property sold in NI. The index is presented for each quarter from Q1 (January-March) 2005.", "topic":"Finance", "dataset_link": "https://cc-p-ni.ckan.io/dataset/0b74f343-051e-4496-a483-301b69d4fae7/resource/b47a047d-5ed1-41ea-af13-2954b4a2bd92/download/ni-hpi-by-property-type-q1-2005---q4-2018.csv", "source": "opendatani", "organization": "Department Of Finance", "created_at": "1548771169", "updated_at": "1548771169" }
{"index":{"_index":"dni", "_type":"_doc", "_id":11}}
{ "title": "Border Crossings 2018", "description": "An exercise was conducted by the Department for Infrastructure (DfI) in Northern Ireland (NI) in collaboration with the Department of Transport, Tourism and Sport (DTTaS) in the Republic of Ireland (RoI), to map the border crossings on the public road network between the two jurisdictions.", "topic":"Infrastructure", "dataset_link": "https://cc-p-ni.ckan.io/dataset/0d481716-a42d-4a74-8fab-15d268242a02/resource/cd9e52bc-4221-481b-8db0-727c288f93cc/download/bordercrossingpoints2018.geojson", "source": "opendatani", "organization": "Department Of Infrastructure", "created_at": "1548771169", "updated_at": "1548771169" }
